<?xml version="1.0" encoding="UTF-8"?>
<svg width="316px" height="33px" viewBox="0 0 316 33" version="1.1" xmlns="http://www.w3.org/2000/svg" xmlns:xlink="http://www.w3.org/1999/xlink">
    <!-- Generator: Sketch 51.3 (57544) - http://www.bohemiancoding.com/sketch -->
    <title>popularSecuritiesLogo</title>
    <desc>Created with Sketch.</desc>
    <defs></defs>
    <g id="Symbols" stroke="none" stroke-width="1" fill="none" fill-rule="evenodd">
        <g id="Header-/-Popular-Securities" transform="translate(-120.000000, -24.000000)" fill-rule="nonzero">
            <g id="Group">
                <g id="popularSecuritiesLogo" transform="translate(120.000000, 24.000000)">
                    <rect id="Rectangle-path" fill="#FFFFFF" x="0.457971014" y="0.458333333" width="32.057971" height="32.0833333"></rect>
                    <path d="M0,0 L0,33 L32.973913,33 L32.973913,0 L0,0 Z M7.27257971,23.2741667 L7.27257971,16.8575 C8.546448,17.4149815 9.36963804,18.6743971 9.36963804,20.0658333 C9.36963804,21.4572695 8.546448,22.7166852 7.27257971,23.2741667 Z M7.27257971,15.7025 L7.27257971,9.60666667 C9.89217391,10.6608333 10.3226667,14.1533333 7.27257971,15.7025 Z M8.92127536,16.225 C9.86439023,15.5800262 10.5210061,14.5943232 10.7531594,13.475 L10.7531594,18.975 C10.5201102,17.8560523 9.86369937,16.8706571 8.92127536,16.225 Z M12.3926957,6.27916667 C16.1114203,8.70833333 16.4228406,16.0325 12.3926957,18.8375 L12.3926957,6.27916667 Z M16.4594783,14.74 L16.4594783,29.2783333 C15.0760349,29.2751752 13.7023818,29.0460518 12.3926957,28.6 L12.3926957,20.57 C14.5235896,19.3030809 16.005567,17.178569 16.4594783,14.74 Z M18.0806957,5.5 C22.3673043,8.1675 22.2115942,15.8125 18.0806957,18.8191667 L18.0806957,5.5 Z M22.1474783,15.3083333 L22.1474783,27.9216667 C20.8723997,28.5634519 19.4969315,28.9819994 18.0806957,29.1591667 L18.0806957,20.5333333 C20.0227911,19.3408757 21.4675111,17.4847003 22.1474783,15.3083333 Z M18.5478261,3.91416667 C19.7992031,4.11958404 21.0126342,4.51202087 22.1474783,5.07833333 L22.1474783,8.48833333 C21.4797596,6.61064735 20.2152903,5.003855 18.5478261,3.91416667 Z M23.7595362,7.44333333 C26.7363478,9.56083333 27.2309565,14.9416667 23.7595362,17.7558333 L23.7595362,7.44333333 Z M16.432,10.4775 C15.9347419,8.0135565 14.5285831,5.827377 12.4934493,4.35416667 C13.7648653,3.93723885 15.0940731,3.72377862 16.432,3.72166667 L16.432,10.4775 Z M10.744,5.07833333 L10.744,11.7975 C10.3226667,9.58833333 8.28927536,8.415 6.94284058,7.98416667 C8.02242627,6.78029982 9.32194645,5.79399885 10.7714783,5.07833333 L10.744,5.07833333 Z M5.63304348,9.7075 L5.63304348,23.2925 C3.00637139,19.1456717 3.00637139,13.8543283 5.63304348,9.7075 Z M6.9977971,25.0525 L7.09855072,25.0525 L7.27257971,24.9975 C9.1245379,24.3265889 10.4651225,22.7004587 10.7714783,20.7533333 L10.7714783,27.9766667 C9.34053022,27.248912 8.06011125,26.2567353 6.9977971,25.0525 Z M23.7595362,26.9683333 L23.7595362,19.1858333 L26.3791304,24.5391667 C25.6223781,25.4662279 24.7407772,26.2837421 23.7595362,26.9683333 Z M27.4233043,23.0175 L25.170087,18.4341667 C26.7397202,17.0354628 27.6447763,15.0374361 27.6614493,12.9341667 C27.6917263,11.6745631 27.4479492,10.4234353 26.9470145,9.2675 C29.8133532,13.367839 30.0034929,18.7713608 27.4324638,23.0633333 L27.4233043,23.0175 Z" id="Shape" fill="#FF0000"></path>
                    <path d="M50.5874783,8.25 L40.273971,8.25 C40.8287162,8.70069181 41.1624917,9.368771 41.189913,10.0833333 L41.189913,23.0083333 C41.1361596,23.6900269 40.8050103,24.3197083 40.273971,24.75 L48.8563478,24.75 C48.3155166,24.3198246 47.9825872,23.6800943 47.9404058,22.99 L47.9404058,18.7366667 L51.2103188,18.7366667 C53.3078261,18.7366667 57.2646957,17.9666667 57.2646957,13.4108333 C57.2738551,9.99166667 54.9656812,8.25 50.5874783,8.25 Z M47.9404058,16.9766667 L47.9404058,10.0833333 C49.4883478,10.0833333 51.2835942,10.1475 51.2835942,13.5666667 C51.2835942,16.9858333 49.0944928,16.9675 47.9404058,16.9766667 Z" id="Shape" fill="#FFFFFF"></path>
                    <path d="M68.4666667,7.8925 C62.9710145,7.8925 58.5561739,11.1191667 58.5561739,16.4816667 C58.5561739,18.7091667 59.6095072,25.1258333 68.6315362,25.1258333 C73.8707246,25.1258333 78.5511884,22.6233333 78.5511884,16.4816667 C78.5145507,11.5775 74.7317101,7.8925 68.4666667,7.8925 Z M68.5674203,23.265 C66.7996522,23.265 65.2242319,21.2025 65.2242319,16.5275 C65.2242319,12.21 66.3416812,9.77166667 68.5124638,9.77166667 C70.6832464,9.77166667 71.9106087,12.0908333 71.9106087,16.5275 C71.9106087,20.4508333 70.9763478,23.265 68.5674203,23.265 Z" id="Shape" fill="#FFFFFF"></path>
                    <path d="M89.9638261,8.25 L79.6503188,8.25 C80.205064,8.70069181 80.5388396,9.368771 80.5662609,10.0833333 L80.5662609,23.0083333 C80.5093737,23.6891156 80.1788334,24.3176391 79.6503188,24.75 L88.2418551,24.75 C87.7010239,24.3198246 87.3680944,23.6800943 87.325913,22.99 L87.325913,18.7366667 L90.5958261,18.7366667 C92.6933333,18.7366667 96.6502029,17.9666667 96.6502029,13.4108333 C96.6502029,9.99166667 94.342029,8.25 89.9638261,8.25 Z M87.325913,16.9766667 L87.325913,10.0833333 C88.8738551,10.0833333 90.6691014,10.1475 90.6691014,13.5666667 C90.6691014,16.9858333 88.4708406,16.9675 87.325913,16.9766667 Z" id="Shape" fill="#FFFFFF"></path>
                    <path d="M130.017971,22.3483333 L124.723826,22.3483333 L124.723826,9.88166667 C124.782857,9.21837048 125.140128,8.61795008 125.694725,8.25 L117.07571,8.25 C117.632376,8.69914635 117.966619,9.36816033 117.991652,10.0833333 L117.991652,23.0358333 C117.939137,23.7102232 117.606987,24.3318354 117.07571,24.75 L131.529275,24.75 L133.123014,21.01 C132.354097,21.9175481 131.205166,22.4127593 130.017971,22.3483333 Z" id="Shape" fill="#FFFFFF"></path>
                    <path d="M159.859362,16.5733333 L164.777971,24.75 L173.369507,24.75 C172.755826,24.53 171.537623,22.66 170.997217,21.9083333 C170.456812,21.1566667 169.21113,19.4058333 168.90887,18.9933333 C168.410125,18.1600803 167.76827,17.4215176 167.01287,16.8116667 C167.01287,16.8116667 167.01287,16.8116667 167.01287,16.8116667 C169.00875,16.3499047 170.379506,14.5130333 170.255304,12.4666667 C170.255304,10.3858333 168.963826,8.2775 164.869565,8.2775 L152.055536,8.2775 C152.763112,8.94460405 153.118834,9.90411614 153.017275,10.8716667 L153.017275,23.3475 C153.017275,23.5583333 153.017275,24.2641667 152.568464,24.2641667 C152.321159,24.2641667 152.183768,24.1725 151.973101,23.815 L145.561507,8.23166667 L138.408,8.23166667 C138.91757,8.76246929 139.087335,9.53409371 138.847652,10.23 L133.727536,22.5958333 C133.392496,23.4379056 132.846853,24.1796832 132.142957,24.75 L136.383768,24.75 C136.13522,24.0058368 136.171117,23.1958848 136.484522,22.4766667 L137.208116,20.5425 L143.436522,20.5425 L144.187594,22.5958333 C144.47762,23.3056804 144.395186,24.1134817 143.967768,24.75 L160.674551,24.75 C160.160125,24.3894588 159.842051,23.8103772 159.813565,23.1825 L159.813565,16.5825 L159.859362,16.5733333 Z M159.859362,10.1566667 L160.912696,10.1566667 C163.440696,10.1566667 163.660522,11.7975 163.660522,13.1266667 C163.751919,13.9391725 163.484526,14.7511459 162.928333,15.3500549 C162.37214,15.9489639 161.582517,16.275186 160.766145,16.2433333 L159.850203,16.2433333 L159.859362,10.1566667 Z M138.014145,18.5716667 L140.395594,12.3291667 L142.722087,18.5625 L138.014145,18.5716667 Z" id="Shape" fill="#FFFFFF"></path>
                    <path d="M111.726609,8.25 C112.244673,8.65645215 112.559226,9.2693108 112.587594,9.9275 L112.587594,18.425 C112.634159,19.4669708 112.235119,20.4794779 111.490356,21.2090836 C110.745592,21.9386893 109.725597,22.3163374 108.685681,22.2475 C107.636739,22.3194789 106.609179,21.9265229 105.875487,21.1728342 C105.141795,20.4191455 104.776095,19.3808703 104.875362,18.3333333 L104.875362,10.0833333 C104.851493,9.34137674 105.19403,8.63519194 105.791304,8.195 L97.1997681,8.195 C97.7297447,8.66514783 98.0578752,9.32192792 98.1157101,10.0283333 L98.1157101,18.5258333 C98.1157101,22.1925 101.010087,25.1533333 106.707246,25.1258333 C109.830609,25.1258333 111.918957,24.4658333 113.320348,22.9808333 C114.484679,21.7190712 115.123567,20.0599293 115.106435,18.3425 L115.106435,10.0925 C115.124347,9.36265684 115.458681,8.67673004 116.022377,8.21333333 L111.726609,8.25 Z" id="Shape" fill="#FFFFFF"></path>
                    <path d="M181.741217,21.1383333 C182.840348,23.5491667 184.049391,23.8883333 185.459942,23.8883333 C186.93426,23.9707983 188.246151,22.9591774 188.54236,21.511429 C188.838569,20.0636805 188.029558,18.6174361 186.641507,18.1133333 C185.97287,17.8291667 184.809623,17.3891667 184.168464,17.105 C181.832812,16.0691667 181.136696,14.8408333 181.136696,12.8425 C181.136696,10.8441667 182.391536,8.03 186.742261,8.03 C188.130488,8.03545734 189.497038,8.37500715 190.726609,9.02 C190.402232,9.75354344 190.153635,10.5183525 189.984696,11.3025 L189.645797,11.3025 C189.219917,9.94900039 187.90645,9.07775757 186.494957,9.2125 C185.763228,9.12702961 185.03051,9.36407731 184.487233,9.86203529 C183.943956,10.3599933 183.643771,11.0696859 183.664696,11.8066667 C183.664696,13.5666667 184.882899,14.0525 186.998725,14.8683333 C188.830609,15.5925 189.572522,15.8491667 190.268638,16.6191667 C191.038303,17.4989297 191.45872,18.6307129 191.450203,19.8 C191.450203,22.2566667 189.746551,25.0708333 185.34087,25.0708333 C183.764167,25.0261826 182.221473,24.6016847 180.843594,23.8333333 C181.162446,22.9487292 181.350668,22.0223113 181.402319,21.0833333 L181.741217,21.1383333 Z" id="Shape" fill="#FFFFFF"></path>
                    <path d="M197.238957,15.3908333 C198.466319,15.3908333 201.159188,15.3908333 202.432348,15.2258333 C202.349818,15.5054788 202.309681,15.7959342 202.313275,16.0875 C202.303357,16.3644124 202.3437,16.6408296 202.432348,16.9033333 C201.809507,16.9033333 201.186667,16.8116667 200.600464,16.7841667 C199.492174,16.7841667 198.365565,16.7383333 197.257275,16.7383333 L197.257275,23.2558333 C197.880116,23.2558333 200.921043,23.1825 203.000232,23.0908333 C202.906784,23.3426175 202.866248,23.6109896 202.881159,23.8791667 C202.862977,24.1894945 202.903372,24.5004729 203.000232,24.7958333 C201.562203,24.695 200.115014,24.6491667 198.576232,24.6491667 C197.037449,24.6491667 195.626899,24.6491667 194.088116,24.7958333 C194.088116,23.7875 194.17971,22.7975 194.207188,21.7891667 C194.207188,20.3958333 194.298783,17.4533333 194.298783,16.3533333 C194.298783,15.2533333 194.252986,10.6975 194.088116,8.28666667 C195.260522,8.36 197.138203,8.43333333 198.438841,8.43333333 C199.537971,8.43333333 201.13171,8.3325 202.862841,8.28666667 C202.788237,8.53669531 202.748175,8.79576559 202.743768,9.05666667 C202.731493,9.36675732 202.771753,9.67669048 202.862841,9.97333333 L200.600464,9.85416667 C199.684522,9.80833333 199.473855,9.80833333 197.257275,9.80833333 L197.238957,15.3908333 Z" id="Shape" fill="#FFFFFF"></path>
                    <path d="M218.98342,11.6141667 L218.736116,11.6141667 C218.452174,11.0366667 217.609507,9.35 214.156406,9.35 C210.14458,9.35 208.001275,11.9991667 208.001275,16.5458333 C207.92607,18.3386662 208.440922,20.106648 209.466783,21.5783333 C210.465782,22.9826227 212.095495,23.7998407 213.817507,23.76 C216.006384,23.7984353 218.078323,22.7736024 219.377275,21.01 L219.642899,21.1841667 L219.377275,23.5583333 C217.513055,24.5769048 215.41927,25.1007651 213.29542,25.08 C208.605797,25.08 204.703884,22.165 204.703884,16.7566667 C204.703884,11.9166667 207.662377,8.03916667 214.08313,8.03916667 C216.024594,8.01643345 217.946419,8.42992129 219.707014,9.24916667 L218.98342,11.6141667 Z" id="Shape" fill="#FFFFFF"></path>
                    <path d="M225.15687,10.0833333 C225.083594,11.9166667 225.083594,14.2175 225.083594,16.2891667 C225.083594,20.1116667 225.138551,20.9825 225.834667,21.9175 C226.755802,22.9582251 228.114232,23.5020271 229.498435,23.3841667 C231.227613,23.4961359 232.839243,22.5041443 233.51942,20.9091667 C233.805433,19.8528334 233.910727,18.7556705 233.830841,17.6641667 C233.830841,14.5291667 233.830841,11.3758333 233.611014,8.25 C233.96737,8.32438563 234.328545,8.37339735 234.691826,8.39666667 C235.073102,8.37153468 235.452432,8.32255008 235.827594,8.25 L235.754319,9.405 C235.635246,11.4766667 235.561971,16.4358333 235.516174,18.865 C235.461217,21.7066667 234.646029,22.9991667 233.061449,24.0166667 C231.829035,24.7093811 230.435485,25.0635787 229.022145,25.0433333 C226.136928,25.0433333 222.674667,24.1266667 222.14342,20.405 C222.14342,20.0658333 222.14342,19.3416667 222.14342,19.1308333 L222.14342,12.5766667 C222.14342,11.3483333 222.097623,9.46916667 222.024348,8.24083333 C222.58247,8.32527026 223.145373,8.37425714 223.709681,8.3875 C224.231622,8.37716065 224.75208,8.3281376 225.266783,8.24083333 L225.15687,10.0833333 Z" id="Shape" fill="#FFFFFF"></path>
                    <path d="M242.120116,9.5425 C242.486493,9.5425 243.374957,9.42333333 243.832928,9.42333333 C244.623653,9.37794001 245.407785,9.59020918 246.067826,10.0283333 C246.807284,10.6325706 247.187249,11.5728632 247.075362,12.5216667 C247.13771,13.4169884 246.811373,14.2957517 246.179887,14.9330032 C245.548402,15.5702547 244.673072,15.9041321 243.777971,15.8491667 C243.15513,15.8491667 242.578087,15.7941667 242.120116,15.7758333 L242.120116,9.5425 Z M246.067826,16.5641667 C248.256928,16.1608333 250.244522,14.7858333 250.244522,12.1183333 C250.253704,11.1089102 249.857737,10.1380221 249.145391,9.42333333 C248.111828,8.53182587 246.756182,8.10722917 245.399188,8.25 C244.849623,8.25 242.065159,8.36916667 241.433159,8.36916667 C240.631724,8.3706752 239.830741,8.33090036 239.033391,8.25 C239.198261,11.3575 239.198261,11.6966667 239.198261,14.85 C239.198261,19.4883333 239.198261,20.02 238.987594,24.7591667 C239.536204,24.67234 240.090127,24.6233357 240.645449,24.6125 C241.184966,24.6335973 241.723034,24.6825513 242.257507,24.7591667 C242.257507,24.1358333 242.156754,21.0283333 242.156754,20.3316667 L242.156754,16.9033333 L242.733797,16.9033333 C244.034435,18.7366667 245.52742,20.8541667 246.745623,22.7516667 C247.112,23.3016667 247.661565,24.2 248.000464,24.75 C248.645051,24.6424834 249.298017,24.5933955 249.95142,24.6033333 C250.665113,24.6089268 251.377808,24.6579059 252.085565,24.75 C250.574261,22.8525 249.923942,22 248.027942,19.3325 C247.661565,18.8283333 247.112,18.04 246.773101,17.4991667 L246.067826,16.5641667 Z" id="Shape" fill="#FFFFFF"></path>
                    <path d="M254.155594,8.25 C254.613565,8.29583333 255.502029,8.39666667 255.859246,8.39666667 C256.432611,8.38229165 257.004587,8.3333138 257.572058,8.25 C257.340279,11.0363865 257.251621,13.8328464 257.306435,16.6283333 C257.306435,20.2125 257.352232,22.8066667 257.54458,24.7591667 C256.995014,24.7591667 256.417971,24.6125 255.859246,24.6125 C255.300522,24.6125 254.659362,24.7316667 254.128116,24.7591667 C254.393739,21.8991667 254.393739,17.9208333 254.393739,13.8141667 C254.417118,11.9564659 254.337615,10.0988958 254.155594,8.25 Z" id="Shape" fill="#FFFFFF"></path>
                    <path d="M267.839768,21.45 C267.824251,22.5523949 267.879321,23.6546524 268.004638,24.75 C267.308522,24.6766667 266.53913,24.6033333 266.246029,24.6033333 C265.700228,24.6212012 265.155888,24.6701694 264.615652,24.75 C264.707246,22.9166667 264.853797,21.0833333 264.853797,19.25 L264.853797,12.5308333 C264.853797,11.6141667 264.853797,10.8075 264.808,9.86333333 L263.608116,9.86333333 C263.38829,9.86333333 261.080116,9.90916667 259.852754,10.0375 C260.032541,9.43963305 260.032541,8.80203362 259.852754,8.20416667 C261.757913,8.32333333 264.432464,8.35083333 266.264348,8.35083333 C268.261101,8.35083333 270.376928,8.35083333 272.675942,8.20416667 C272.61357,8.50634047 272.573769,8.8127433 272.55687,9.12083333 C272.565084,9.42966391 272.604984,9.73683247 272.675942,10.0375 C271.256232,9.89083333 269.55258,9.86333333 267.894725,9.86333333 C267.894725,10.7341667 267.848928,11.6416667 267.848928,12.5583333 L267.839768,21.45 Z" id="Shape" fill="#FFFFFF"></path>
                    <path d="M275.094029,8.25 C275.552,8.29583333 276.440464,8.39666667 276.806841,8.39666667 C277.377143,8.38190253 277.946049,8.33292574 278.510493,8.25 C278.278713,11.0363865 278.190056,13.8328464 278.24487,16.6283333 C278.24487,20.2125 278.290667,22.8066667 278.483014,24.7591667 C277.933449,24.7591667 277.356406,24.6125 276.806841,24.6125 C276.257275,24.6125 275.597797,24.75 275.094029,24.75 C275.359652,21.89 275.359652,17.9116667 275.359652,13.805 C275.377489,11.9497703 275.288802,10.0950473 275.094029,8.25 Z" id="Shape" fill="#FFFFFF"></path>
                    <path d="M285.50829,15.3908333 C286.735652,15.3908333 289.428522,15.3908333 290.701681,15.2258333 C290.619151,15.5054788 290.579014,15.7959342 290.582609,16.0875 C290.57269,16.3644124 290.613034,16.6408296 290.701681,16.9033333 C290.078841,16.9033333 289.446841,16.8116667 288.869797,16.7841667 C287.761507,16.7841667 286.634899,16.7383333 285.526609,16.7383333 L285.526609,23.2558333 C286.149449,23.2558333 289.190377,23.1825 291.269565,23.0908333 C291.176117,23.3426175 291.135581,23.6109896 291.150493,23.8791667 C291.13231,24.1894945 291.172705,24.5004729 291.269565,24.7958333 C289.831536,24.695 288.384348,24.6491667 286.845565,24.6491667 C285.306783,24.6491667 283.887072,24.6491667 282.34829,24.7958333 C282.403246,23.7875 282.449043,22.7975 282.476522,21.7891667 C282.476522,20.3958333 282.568116,17.4533333 282.568116,16.3533333 C282.568116,15.2533333 282.522319,10.6975 282.34829,8.28666667 C283.529855,8.36 285.407536,8.43333333 286.708174,8.43333333 C287.807304,8.43333333 289.401043,8.3325 291.132174,8.28666667 C291.05469,8.53631474 291.011549,8.79536317 291.003942,9.05666667 C290.994628,9.3672784 291.037986,9.67722334 291.132174,9.97333333 L288.833159,9.78083333 C287.917217,9.735 287.697391,9.735 285.489971,9.735 L285.50829,15.3908333 Z" id="Shape" fill="#FFFFFF"></path>
                    <path d="M294.328812,21.1383333 C295.437101,23.5491667 296.636986,23.8883333 298.056696,23.8883333 C299.528938,23.9653323 300.835725,22.9522745 301.129259,21.5063982 C301.422792,20.0605218 300.614638,18.6174219 299.229101,18.1133333 C298.560464,17.8291667 297.397217,17.3891667 296.756058,17.105 C294.420406,16.0691667 293.72429,14.8408333 293.72429,12.8425 C293.72429,10.8441667 294.97913,8.03 299.329855,8.03 C300.721004,8.03542155 302.090533,8.37493093 303.323362,9.02 C302.992473,9.75188371 302.740686,10.517062 302.57229,11.3025 L302.242551,11.3025 C301.810801,9.95343374 300.50141,9.08489494 299.09171,9.2125 C298.359174,9.12732031 297.625717,9.36416484 297.081073,9.86176593 C296.536428,10.359367 296.234098,11.0688438 296.25229,11.8066667 C296.25229,13.5666667 297.479652,14.0525 299.595478,14.8683333 C301.427362,15.5925 302.169275,15.8491667 302.865391,16.6191667 C303.629524,17.5015813 304.046308,18.6323503 304.037797,19.8 C304.037797,22.2566667 302.334145,25.0708333 297.937623,25.0708333 C296.369843,25.024662 294.836413,24.6001194 293.467826,23.8333333 C293.779523,22.9471471 293.96454,22.0213295 294.017391,21.0833333 L294.328812,21.1383333 Z" id="Shape" fill="#FFFFFF"></path>
                    <path d="M310.46771,18.9566667 L311.466087,18.9566667 C312.107246,18.9566667 312.52858,19.1308333 312.52858,19.7175 C312.52858,20.3041667 312.107246,20.515 311.466087,20.515 L310.46771,20.515 L310.46771,18.9566667 Z M309.625043,23.4666667 L310.46771,23.4666667 L310.46771,21.175 L311.191304,21.175 L312.647652,23.4666667 L313.563594,23.4666667 L312.088928,21.175 C312.460085,21.1812493 312.816692,21.0306815 313.071215,20.7602548 C313.325738,20.4898282 313.454612,20.124581 313.426203,19.7541667 C313.426203,18.7733333 312.830841,18.3058333 311.658435,18.3058333 L309.625043,18.3058333 L309.625043,23.4666667 Z M306.877217,20.8908333 C306.867153,23.3247187 308.82958,25.3064135 311.261534,25.3181957 C313.693487,25.3299779 315.674993,23.3673904 315.688474,20.9335216 C315.701955,18.4996528 313.742312,16.5152011 311.310377,16.5 C310.144346,16.4975663 309.025107,16.958804 308.198881,17.7822455 C307.372655,18.6056871 306.907122,19.72388 306.904696,20.8908333 L306.877217,20.8908333 Z M307.719884,20.8908333 C307.7451,18.9276423 309.351308,17.3541933 311.313038,17.3709634 C313.274768,17.3877336 314.853884,18.9884128 314.845587,20.9517485 C314.837289,22.9150841 313.2447,24.5023378 311.282899,24.5025 C310.330023,24.5103643 309.41495,24.1299501 308.748088,23.448729 C308.081227,22.7675079 307.719962,21.8441006 307.747362,20.8908333 L307.719884,20.8908333 Z" id="Shape" fill="#FFFFFF"></path>
                </g>
            </g>
        </g>
    </g>
</svg>