<svg width="24" height="24" viewBox="0 0 24 24" fill="none" xmlns="http://www.w3.org/2000/svg">
<g clip-path="url(#clip0_1049_17871)">
<path d="M12 23.5C18.3513 23.5 23.5 18.3513 23.5 12C23.5 5.64873 18.3513 0.5 12 0.5C5.64873 0.5 0.5 5.64873 0.5 12C0.5 18.3513 5.64873 23.5 12 23.5Z" fill="#2585DC"/>
<path d="M10.9488 15.3073L7 17L8.6928 13.0507L15.744 6L18 8.25664L10.9488 15.3073Z" fill="white" stroke="white" stroke-linecap="round" stroke-linejoin="round"/>
<path d="M17 10L14 7" stroke="#2585DC" stroke-linecap="square" stroke-linejoin="round"/>
<path d="M12 16L8 12" stroke="#2585DC" stroke-linecap="square" stroke-linejoin="round"/>
</g>
<defs>
<clipPath id="clip0_1049_17871">
<rect width="24" height="24" fill="white"/>
</clipPath>
</defs>
</svg>
