<?xml version="1.0" encoding="utf-8"?>
<!-- Generator: Adobe Illustrator 17.1.0, SVG Export Plug-In . SVG Version: 6.00 Build 0)  -->
<!DOCTYPE svg PUBLIC "-//W3C//DTD SVG 1.1//EN" "http://www.w3.org/Graphics/SVG/1.1/DTD/svg11.dtd">
<svg version="1.1" id="Layer_1" xmlns="http://www.w3.org/2000/svg" xmlns:xlink="http://www.w3.org/1999/xlink" x="0px" y="0px"
	 viewBox="0 0 40 40" enable-background="new 0 0 40 40" xml:space="preserve">
<rect x="3.2" y="4.1" fill="#FFFFFF" width="32.9" height="31.9"/>
<path fill="#CF202F" d="M0.7,0.7v38.6h38.6V0.7H0.7z M9.2,27.9v-7.5C12.7,22.3,12.4,26.4,9.2,27.9z M9.2,19.1v-7.1
	C12.3,13.2,12.8,17.3,9.2,19.1z M11.1,19.7L11.1,19.7c0,0,1.7-1.1,2.2-3.2v6.4C12.9,20.9,11.5,19.9,11.1,19.7z M15.2,8
	c4.4,2.8,4.7,11.4,0,14.7V8z M20,17.9v17c-1.7,0-3.3-0.3-4.8-0.8v-9.4C16.3,24.2,19.1,22.1,20,17.9z M21.9,7.1
	c5,3.1,4.8,12.1,0,15.6V7.1z M26.6,18.6v14.8c-1.5,0.7-3.1,1.2-4.8,1.4V24.7C23,24.1,25.5,22.1,26.6,18.6z M22.4,5.3
	c1.5,0.2,2.9,0.7,4.2,1.4v4C25.9,8.4,24.5,6.7,22.4,5.3z M28.5,9.4c3.5,2.5,4.1,8.8,0,12.1V9.4z M20,13c-0.6-2.9-2.1-5.2-4.6-7.2
	C16.8,5.3,18.4,5,20,5V13z M13.3,6.6v7.9c-0.5-2.6-2.9-4-4.5-4.5C10.1,8.6,11.6,7.5,13.3,6.6z M7.3,12.1v15.9C5.9,25.6,5,22.9,5,20
	C5,17.1,5.9,14.4,7.3,12.1z M8.9,30c0,0,0.1,0,0.1,0l0,0c0,0,0,0,0,0c0.1,0,0.2-0.1,0.2-0.1v0c1.9-0.7,3.7-2.5,4.1-5v8.5
	C11.6,32.5,10.1,31.4,8.9,30z M28.5,32.3v-9.1l3.1,6.3C30.7,30.5,29.7,31.5,28.5,32.3z M32.8,27.6l-2.6-5.3l0,0
	c1.3-1.3,2.9-3.2,2.9-6.5c0-1.7-0.3-3.1-0.8-4.3c1.7,2.4,2.7,5.4,2.7,8.5C34.9,22.8,34.1,25.4,32.8,27.6z"/>
</svg>
